FIR_LPF/FIR_LPF.sim/sim_1/behav/xsim/simulate.log
Time resolution is 1 ps
Input file opened successfully.
---------------------------------------------
Time	Input	Output
---------------------------------------------
0	     0	     x
5000	     0	     0
i=0 sample=-6153
25000	 -6153	     0
i=1 sample=11198
35000	 11198	    -8
i=2 sample=-7191
45000	 -7191	     3
i=3 sample=-10520
55000	-10520	     8
i=4 sample=-8016
65000	 -8016	    -7
i=5 sample=-5429
75000	 -5429	   -33
i=6 sample=-5297
85000	 -5297	   -39
i=7 sample=1691
95000	  1691	     0
i=8 sample=-1866
105000	 -1866	    71
i=9 sample=5560
115000	  5560	    86
i=10 sample=-8076
125000	 -8076	    -7
i=11 sample=7588
135000	  7588	  -164
i=12 sample=-14310
145000	-14310	  -187
i=13 sample=8304
155000	  8304	     8
i=14 sample=-2302
165000	 -2302	   312
i=15 sample=1581
175000	  1581	   379
i=16 sample=-18633
185000	-18633	     4
i=17 sample=-12041
195000	-12041	  -600
i=18 sample=11141
205000	 11141	  -822
i=19 sample=19238
215000	 19238	  -229
i=20 sample=-2609
225000	 -2609	   792
i=21 sample=5723
235000	  5723	  1028
i=22 sample=16887
245000	 16887	  -599
i=23 sample=16815
255000	 16815	 -3932
i=24 sample=-17682
265000	-17682	 -7301
i=25 sample=-9965
275000	 -9965	 -8608
i=26 sample=-3957
285000	 -3957	 -6931
i=27 sample=13293
295000	 13293	 -3403
i=28 sample=-12967
305000	-12967	  -314
i=29 sample=-2773
315000	 -2773	   685
i=30 sample=12048
325000	 12048	  -121
i=31 sample=626
335000	   626	 -1109
i=32 sample=4278
345000	  4278	 -1078
i=33 sample=-3055
355000	 -3055	  -405
i=34 sample=7475
365000	  7475	  -622
i=35 sample=8805
375000	  8805	 -2683
i=36 sample=-4653
385000	 -4653	 -5690
i=37 sample=17039
395000	 17039	 -7249
i=38 sample=5600
405000	  5600	 -5205
i=39 sample=-6028
415000	 -6028	   479
i=40 sample=5720
425000	  5720	  7437
i=41 sample=-5074
435000	 -5074	 12330
i=42 sample=-1470
445000	 -1470	 12824
i=43 sample=5803
455000	  5803	  8910
i=44 sample=-9901
465000	 -9901	  2724
i=45 sample=-3277
475000	 -3277	 -2914
i=46 sample=-11106
485000	-11106	 -5886
i=47 sample=-6500
495000	 -6500	 -5650
i=48 sample=8781
505000	  8781	 -3115
i=49 sample=-14047
515000	-14047	    95
i=50 sample=-5291
525000	 -5291	  2447
i=51 sample=-270
535000	  -270	  3221
i=52 sample=-13996
545000	-13996	  2743
i=53 sample=2455
555000	  2455	  2047
i=54 sample=-19138
565000	-19138	  2276
i=55 sample=1894
575000	  1894	  3724
i=56 sample=4037
585000	  4037	  5713
i=57 sample=-12041
595000	-12041	  6913
i=58 sample=-4600
605000	 -4600	  6373
i=59 sample=5634
615000	  5634	  4259
i=60 sample=-2621
625000	 -2621	  1756
i=61 sample=-17611
635000	-17611	    64
i=62 sample=386
645000	   386	  -590
i=63 sample=2683
655000	  2683	 -1006
i=64 sample=603
665000	   603	 -2120
i=65 sample=4109
675000	  4109	 -4004
i=66 sample=4009
685000	  4009	 -5712
i=67 sample=12320
695000	 12320	 -6212
i=68 sample=-9953
705000	 -9953	 -5323
i=69 sample=-16936
715000	-16936	 -4023
i=70 sample=7737
725000	  7737	 -3556
i=71 sample=-3112
735000	 -3112	 -4423
i=72 sample=-11515
745000	-11515	 -6053
i=73 sample=10541
755000	 10541	 -7356
i=74 sample=-4811
765000	 -4811	 -7524
i=75 sample=8520
775000	  8520	 -6477
i=76 sample=3576
785000	  3576	 -4679
i=77 sample=13770
795000	 13770	 -2841
i=78 sample=4237
805000	  4237	 -1713
i=79 sample=6123
815000	  6123	 -1901
i=80 sample=-5913
825000	 -5913	 -3396
i=81 sample=-5643
835000	 -5643	 -5353
i=82 sample=15276
845000	 15276	 -6207
i=83 sample=-3309
855000	 -3309	 -4601
i=84 sample=1556
865000	  1556	  -690
i=85 sample=-15516
875000	-15516	  3694
i=86 sample=5512
885000	  5512	  6027
i=87 sample=-1222
895000	 -1222	  4917
i=88 sample=4104
905000	  4104	  1113
i=89 sample=-2324
915000	 -2324	 -3088
i=90 sample=-10291
925000	-10291	 -5562
i=91 sample=15935
935000	 15935	 -5685
i=92 sample=1672
945000	  1672	 -4221
i=93 sample=-19638
955000	-19638	 -2150
i=94 sample=2001
965000	  2001	   204
i=95 sample=-5526
975000	 -5526	  2967
i=96 sample=172
985000	   172	  5828
i=97 sample=14171
995000	 14171	  7696
i=98 sample=-4027
1005000	 -4027	  7579
i=99 sample=15987
1015000	 15987	  5496
i=100 sample=3465
1025000	  3465	  2747
====================================
Sample 100
====================================
pair0  =   -1135
pair1  =   21621
pair2  =   -6648
pair3  =   -3440
pair4  =     558
pair5  =   -2843
pair6  =    2604
pair7  =  -15529
pair8  =    5681
pair9  =   28255
pair10 =  -20244
pair11 =  -19260
pair12 =   11841
pair13 =   -4334
pair14 =   -6003
pair15 =   -4975
pair16 =   -3255
pair17 =    5211
pair18 =   18852
pair19 =    8127
pair20 =   -1676
pair21 =    6123
------------------------------------
prod0  =           0
prod1  =      821598
prod2  =     -319104
prod3  =           0
prod4  =      -47430
prod5  =      324102
prod6  =           0
prod7  =    -3105800
prod8  =     1465698
prod9  =           0
prod10 =     8381016
prod11 =     9976680
prod12 =           0
prod13 =    -3458532
prod14 =    -5954976
prod15 =           0
prod16 =     5149410
prod17 =   -10807614
prod18 =           0
prod19 =    35888832
prod20 =   -15033720
prod21 =    66759069
------------------------------------
acc =       90039229
y   =   2747
====================================
i=101 sample=-10401
1035000	-10401	   892
i=102 sample=18300
1045000	 18300	   490
i=103 sample=5906
1055000	  5906	   806
i=104 sample=6231
1065000	  6231	   563
i=105 sample=-13874
1075000	-13874	  -745
i=106 sample=8096
1085000	  8096	 -2472
i=107 sample=5503
1095000	  5503	 -3292
i=108 sample=-8709
1105000	 -8709	 -2374
i=109 sample=7536
1115000	  7536	  -112
i=110 sample=4907
1125000	  4907	  2066
i=111 sample=4689
1135000	  4689	  2498
i=112 sample=6294
1145000	  6294	   526
i=113 sample=-6733
1155000	 -6733	 -2862
i=114 sample=-12390
1165000	-12390	 -5554
i=115 sample=-7031
1175000	 -7031	 -5593
i=116 sample=-13914
1185000	-13914	 -2550
i=117 sample=-3713
1195000	 -3713	  1984
i=118 sample=7979
1205000	  7979	  5609
i=119 sample=785
1215000	   785	  6788
i=120 sample=2983
1225000	  2983	  5874
i=121 sample=7488
1235000	  7488	  4538
i=122 sample=-7596
1245000	 -7596	  4211
i=123 sample=-3087
1255000	 -3087	  4817
i=124 sample=2699
1265000	  2699	  5085
i=125 sample=12416
1275000	 12416	  3894
i=126 sample=1520
1285000	  1520	  1396
i=127 sample=-20082
1295000	-20082	  -930
i=128 sample=6704
1305000	  6704	 -1446
i=129 sample=-9892
1315000	 -9892	   509
i=130 sample=10127
1325000	 10127	  3865
i=131 sample=-3008
1335000	 -3008	  6446
i=132 sample=14028
1345000	 14028	  6054
i=133 sample=6628
1355000	  6628	  1910
i=134 sample=1508
1365000	  1508	 -4581
i=135 sample=-8964
1375000	 -8964	-10325
i=136 sample=-7518
1385000	 -7518	-12198
i=137 sample=-19428
1395000	-19428	 -9054
i=138 sample=-22363
1405000	-22363	 -2804
i=139 sample=-15731
1415000	-15731	  2817
i=140 sample=-9084
1425000	 -9084	  4845
i=141 sample=2140
1435000	  2140	  3117
i=142 sample=2064
1445000	  2064	   207
i=143 sample=-7805
1455000	 -7805	  -990
i=144 sample=-9602
1465000	 -9602	   326
i=145 sample=11521
1475000	 11521	  2412
i=146 sample=1482
1485000	  1482	  2709
i=147 sample=-3795
1495000	 -3795	   245
i=148 sample=-4188
1505000	 -4188	 -3438
i=149 sample=4248
1515000	  4248	 -5459
i=150 sample=-15781
1525000	-15781	 -3909
i=151 sample=2037
1535000	  2037	   753
i=152 sample=5210
1545000	  5210	  6139
i=153 sample=13200
1555000	 13200	  9252
i=154 sample=-5871
1565000	 -5871	  8060
i=155 sample=-119
1575000	  -119	  2338
i=156 sample=7334
1585000	  7334	 -6165
i=157 sample=15446
1595000	 15446	-14330
i=158 sample=-13367
1605000	-13367	-18976
i=159 sample=-16565
1615000	-16565	-18565
i=160 sample=-4477
1625000	 -4477	-14025
i=161 sample=-570
1635000	  -570	 -8168
i=162 sample=4161
1645000	  4161	 -3780
i=163 sample=1908
1655000	  1908	 -1814
i=164 sample=-5530
1665000	 -5530	 -1278
i=165 sample=7251
1675000	  7251	  -760
i=166 sample=1335
1685000	  1335	   115
i=167 sample=-3536
1695000	 -3536	   508
i=168 sample=1000
1705000	  1000	  -387
i=169 sample=12046
1715000	 12046	 -2233
i=170 sample=4732
1725000	  4732	 -3684
i=171 sample=-3764
1735000	 -3764	 -3494
i=172 sample=-16970
1745000	-16970	 -1532
i=173 sample=-2530
1755000	 -2530	  1400
i=174 sample=1692
1765000	  1692	  4220
i=175 sample=-4116
1775000	 -4116	  6056
i=176 sample=4404
1785000	  4404	  6136
i=177 sample=-10632
1795000	-10632	  3905
i=178 sample=-3404
1805000	 -3404	  -443
i=179 sample=5046
1815000	  5046	 -5293
i=180 sample=-15581
1825000	-15581	 -8131
i=181 sample=4426
1835000	  4426	 -7250
i=182 sample=1063
1845000	  1063	 -3248
i=183 sample=14188
1855000	 14188	  1078
i=184 sample=-5560
1865000	 -5560	  2943
i=185 sample=-16296
1875000	-16296	  1818
i=186 sample=7025
1885000	  7025	  -189
i=187 sample=10312
1895000	 10312	  -351
i=188 sample=7174
1905000	  7174	  2034
i=189 sample=15450
1915000	 15450	  4864
i=190 sample=-13036
1925000	-13036	  5155
i=191 sample=-9974
1935000	 -9974	  1742
i=192 sample=4527
1945000	  4527	 -3446
i=193 sample=11587
1955000	 11587	 -6930
i=194 sample=22476
1965000	 22476	 -6528
i=195 sample=1086
1975000	  1086	 -3210
i=196 sample=2646
1985000	  2646	  -246
i=197 sample=7130
1995000	  7130	  -315
i=198 sample=-2467
2005000	 -2467	 -3104
i=199 sample=-246
2015000	  -246	 -5660
i=200 sample=917
2025000	   917	 -5126
i=201 sample=1367
2035000	  1367	 -1557
i=202 sample=17598
2045000	 17598	  2075
i=203 sample=10432
2055000	 10432	  2692
i=204 sample=-3452
2065000	 -3452	   133
i=205 sample=4475
2075000	  4475	 -2510
i=206 sample=-7955
2085000	 -7955	 -1808
i=207 sample=-4964
2095000	 -4964	  2498
i=208 sample=-13166
2105000	-13166	  7023
i=209 sample=40
2115000	    40	  7693
i=210 sample=-13318
2125000	-13318	  3683
i=211 sample=24925
2135000	 24925	 -1603
i=212 sample=7770
2145000	  7770	 -3264
i=213 sample=-13684
2155000	-13684	   728
i=214 sample=-4738
2165000	 -4738	  7781
i=215 sample=-4911
2175000	 -4911	 12833
i=216 sample=-17091
2185000	-17091	 12410
i=217 sample=9371
2195000	  9371	  7103
i=218 sample=-3420
2205000	 -3420	   769
i=219 sample=10738
2215000	 10738	 -2661
i=220 sample=3878
2225000	  3878	 -1711
i=221 sample=7766
2235000	  7766	  2344
i=222 sample=3031
2245000	  3031	  6933
i=223 sample=22896
2255000	 22896	  9721
i=224 sample=-1081
2265000	 -1081	  9413
i=225 sample=1119
2275000	  1119	  5687
i=226 sample=9478
2285000	  9478	  -497
i=227 sample=-3391
2295000	 -3391	 -6864
i=228 sample=-522
2305000	  -522	-10431
i=229 sample=2289
2315000	  2289	 -9084
i=230 sample=-25931
2325000	-25931	 -3364
i=231 sample=1835
2335000	  1835	  3330
i=232 sample=-1378
2345000	 -1378	  6816
i=233 sample=13790
2355000	 13790	  4826
i=234 sample=-3761
2365000	 -3761	 -1235
i=235 sample=16391
2375000	 16391	 -7388
i=236 sample=2388
2385000	  2388	 -9848
i=237 sample=-5864
2395000	 -5864	 -7516
i=238 sample=9256
2405000	  9256	 -2228
i=239 sample=1242
2415000	  1242	  3119
i=240 sample=-3454
2425000	 -3454	  6562
i=241 sample=-885
2435000	  -885	  7883
i=242 sample=4644
2445000	  4644	  7985
i=243 sample=13286
2455000	 13286	  7774
i=244 sample=-2600
2465000	 -2600	  7595
i=245 sample=6407
2475000	  6407	  7265
i=246 sample=1807
2485000	  1807	  6310
i=247 sample=6355
2495000	  6355	  4156
i=248 sample=1975
2505000	  1975	   585
i=249 sample=3108
2515000	  3108	 -3800
i=250 sample=-7804
2525000	 -7804	 -7351
i=251 sample=3147
2535000	  3147	 -8175
i=252 sample=3261
2545000	  3261	 -5392
i=253 sample=3600
2555000	  3600	  -101
i=254 sample=10324
2565000	 10324	  5209
i=255 sample=9432
2575000	  9432	  8091
i=256 sample=1978
2585000	  1978	  7660
i=257 sample=-3785
2595000	 -3785	  4923
i=258 sample=4797
2605000	  4797	  1811
i=259 sample=-1211
2615000	 -1211	   -82
i=260 sample=-2417
2625000	 -2417	  -220
i=261 sample=-740
2635000	  -740	   904
i=262 sample=-2983
2645000	 -2983	  2440
i=263 sample=-2924
2655000	 -2924	  3694
i=264 sample=3804
2665000	  3804	  4442
i=265 sample=-1227
2675000	 -1227	  4813
i=266 sample=12587
2685000	 12587	  4956
i=267 sample=6359
2695000	  6359	  4693
i=268 sample=-6558
2705000	 -6558	  3653
i=269 sample=-467
2715000	  -467	  1748
i=270 sample=-3098
2725000	 -3098	  -329
i=271 sample=2875
2735000	  2875	 -1254
i=272 sample=19497
2745000	 19497	    -1
i=273 sample=16185
2755000	 16185	  3106
i=274 sample=4842
2765000	  4842	  6376
i=275 sample=-1779
2775000	 -1779	  7794
i=276 sample=-5588
2785000	 -5588	  6612
i=277 sample=10839
2795000	 10839	  3824
i=278 sample=1236
2805000	  1236	  1300
i=279 sample=5560
2815000	  5560	    24
i=280 sample=980
2825000	   980	  -499
i=281 sample=2508
2835000	  2508	 -1351
i=282 sample=520
2845000	   520	 -2686
i=283 sample=2098
2855000	  2098	 -3214
i=284 sample=863
2865000	   863	 -1458
i=285 sample=-1423
2875000	 -1423	  2352
i=286 sample=-5321
2885000	 -5321	  5813
i=287 sample=-17057
2895000	-17057	  6105
i=288 sample=-4463
2905000	 -4463	  2700
i=289 sample=-8557
2915000	 -8557	 -1677
i=290 sample=5194
2925000	  5194	 -3011
i=291 sample=-6970
2935000	 -6970	   628
i=292 sample=13992
2945000	 13992	  7181
i=293 sample=4796
2955000	  4796	 12145
i=294 sample=6567
2965000	  6567	 12175
i=295 sample=1279
2975000	  1279	  7721
i=296 sample=-10133
2985000	-10133	  2387
i=297 sample=-1589
2995000	 -1589	  -229
i=298 sample=-4388
3005000	 -4388	   699
i=299 sample=-11979
3015000	-11979	  3124
i=300 sample=3986
3025000	  3986	  4448
i=301 sample=-3075
3035000	 -3075	  3847
i=302 sample=12714
3045000	 12714	  2387
i=303 sample=11506
3055000	 11506	  1458
i=304 sample=-4767
3065000	 -4767	  1114
i=305 sample=-10584
3075000	-10584	    89
i=306 sample=-8742
3085000	 -8742	 -2651
i=307 sample=-10
3095000	   -10	 -6554
i=308 sample=1455
3105000	  1455	 -9612
i=309 sample=-8570
3115000	 -8570	 -9800
i=310 sample=-8896
3125000	 -8896	 -6636
i=311 sample=4114
3135000	  4114	 -1437
i=312 sample=-1452
3145000	 -1452	  3646
i=313 sample=3815
3155000	  3815	  6802
i=314 sample=-6187
3165000	 -6187	  7245
i=315 sample=-18560
3175000	-18560	  5071
i=316 sample=642
3185000	   642	   946
i=317 sample=-449
3195000	  -449	 -3853
i=318 sample=-6607
3205000	 -6607	 -7498
i=319 sample=4338
3215000	  4338	 -8177
i=320 sample=752
3225000	   752	 -5174
i=321 sample=4547
3235000	  4547	   183
i=322 sample=-22378
3245000	-22378	  5045
i=323 sample=4209
3255000	  4209	  6686
i=324 sample=-3081
3265000	 -3081	  4406
i=325 sample=922
3275000	   922	  -209
i=326 sample=10569
3285000	 10569	 -4524
i=327 sample=-10970
3295000	-10970	 -6697
i=328 sample=-4510
3305000	 -4510	 -6584
i=329 sample=4954
3315000	  4954	 -5103
i=330 sample=8411
3325000	  8411	 -3203
i=331 sample=157
3335000	   157	 -1416
i=332 sample=8557
3345000	  8557	  -298
i=333 sample=10948
3355000	 10948	  -586
i=334 sample=8272
3365000	  8272	 -2701
i=335 sample=-4448
3375000	 -4448	 -5761
i=336 sample=5655
3385000	  5655	 -7734
i=337 sample=7927
3395000	  7927	 -6813
i=338 sample=2887
3405000	  2887	 -3236
i=339 sample=10953
3415000	 10953	   533
i=340 sample=-14899
3425000	-14899	  1727
i=341 sample=15515
3435000	 15515	  -438
i=342 sample=5260
3445000	  5260	 -3926
i=343 sample=-5550
3455000	 -5550	 -5702
i=344 sample=-4839
3465000	 -4839	 -4368
i=345 sample=4671
3475000	  4671	 -1203
i=346 sample=-6170
3485000	 -6170	  1121
i=347 sample=8787
3495000	  8787	   993
i=348 sample=-1783
3505000	 -1783	  -706
i=349 sample=3042
3515000	  3042	 -1614
i=350 sample=13465
3525000	 13465	   -48
i=351 sample=-11282
3535000	-11282	  3539
i=352 sample=-8802
3545000	 -8802	  7002
i=353 sample=12415
3555000	 12415	  8429
i=354 sample=1094
3565000	  1094	  7557
i=355 sample=26812
3575000	 26812	  5590
i=356 sample=2599
3585000	  2599	  4067
i=357 sample=1097
3595000	  1097	  3574
i=358 sample=-10148
3605000	-10148	  3746
i=359 sample=-6728
3615000	 -6728	  3993
i=360 sample=-14345
3625000	-14345	  4055
i=361 sample=-10779
3635000	-10779	  3871
i=362 sample=12061
3645000	 12061	  3233
i=363 sample=-10846
3655000	-10846	  1781
i=364 sample=-4988
3665000	 -4988	  -409
i=365 sample=14962
3675000	 14962	 -2300
i=366 sample=5486
3685000	  5486	 -2329
i=367 sample=5485
3695000	  5485	    31
i=368 sample=-13489
3705000	-13489	  3414
i=369 sample=-1805
3715000	 -1805	  5188
i=370 sample=1764
3725000	  1764	  3609
i=371 sample=14069
3735000	 14069	  -295
i=372 sample=-6442
3745000	 -6442	 -3103
i=373 sample=-5025
3755000	 -5025	 -1710
i=374 sample=-8149
3765000	 -8149	  3908
i=375 sample=12385
3775000	 12385	 10258
i=376 sample=-818
3785000	  -818	 12824
i=377 sample=-20387
3795000	-20387	  9375
i=378 sample=239
3805000	   239	  1501
i=379 sample=-10766
3815000	-10766	 -6678
i=380 sample=6778
3825000	  6778	-11490
i=381 sample=-5848
3835000	 -5848	-11605
i=382 sample=-9058
3845000	 -9058	 -8091
i=383 sample=1285
3855000	  1285	 -3141
i=384 sample=6048
3865000	  6048	  1309
i=385 sample=-3479
3875000	 -3479	  3988
i=386 sample=10063
3885000	 10063	  4412
i=387 sample=534
3895000	   534	  2974
i=388 sample=810
3905000	   810	   767
i=389 sample=17407
3915000	 17407	  -888
i=390 sample=6403
3925000	  6403	 -1139
i=391 sample=-14655
3935000	-14655	  -230
i=392 sample=3353
3945000	  3353	   831
i=393 sample=-876
3955000	  -876	  1122
i=394 sample=6052
3965000	  6052	   319
i=395 sample=-8181
3975000	 -8181	 -1198
i=396 sample=-8404
3985000	 -8404	 -2876
i=397 sample=-11596
3995000	-11596	 -4381
i=398 sample=-1760
4005000	 -1760	 -5476
i=399 sample=-16311
4015000	-16311	 -5918
i=400 sample=1439
4025000	  1439	 -5491
i=401 sample=7741
4035000	  7741	 -4280
i=402 sample=5478
4045000	  5478	 -2813
i=403 sample=10086
4055000	 10086	 -1693
i=404 sample=-7615
4065000	 -7615	  -959
i=405 sample=7571
4075000	  7571	    -4
i=406 sample=-2987
4085000	 -2987	  1808
i=407 sample=11245
4095000	 11245	  4337
i=408 sample=805
4105000	   805	  6508
i=409 sample=-13510
4115000	-13510	  6942
i=410 sample=-13786
4125000	-13786	  5183
i=411 sample=-17153
4135000	-17153	  2197
i=412 sample=-13870
4145000	-13870	  -228
i=413 sample=-1309
4155000	 -1309	  -952
i=414 sample=-9534
4165000	 -9534	  -485
i=415 sample=-25913
4175000	-25913	  -723
i=416 sample=16045
4185000	 16045	 -3202
i=417 sample=-2687
4195000	 -2687	 -7375
i=418 sample=10639
4205000	 10639	-10683
i=419 sample=-2910
4215000	 -2910	-10402
i=420 sample=-1598
4225000	 -1598	 -6032
i=421 sample=-771
4235000	  -771	   122
i=422 sample=-358
4245000	  -358	  4620
i=423 sample=19828
4255000	 19828	  5681
i=424 sample=-3893
4265000	 -3893	  4310
i=425 sample=28040
4275000	 28040	  2911
i=426 sample=-15997
4285000	-15997	  2906
i=427 sample=2752
4295000	  2752	  3325
i=428 sample=-13930
4305000	-13930	  2102
i=429 sample=4257
4315000	  4257	 -1813
i=430 sample=-16078
4325000	-16078	 -7338
i=431 sample=573
4335000	   573	-12236
i=432 sample=-10880
4345000	-10880	-14775
i=433 sample=18904
4355000	 18904	-14742
i=434 sample=8731
4365000	  8731	-12734
i=435 sample=15384
4375000	 15384	 -9274
i=436 sample=-4622
4385000	 -4622	 -4758
i=437 sample=-11335
4395000	-11335	  -147
i=438 sample=-13457
4405000	-13457	  2879
i=439 sample=4439
4415000	  4439	  3086
i=440 sample=12608
4425000	 12608	  1088
i=441 sample=21850
4435000	 21850	  -672
i=442 sample=8072
4445000	  8072	   182
i=443 sample=4947
4455000	  4947	  3863
i=444 sample=30350
4465000	 30350	  8088
i=445 sample=-3133
4475000	 -3133	  9940
i=446 sample=-8498
4485000	 -8498	  7994
i=447 sample=-9423
4495000	 -9423	  3057
i=448 sample=-17745
4505000	-17745	 -2825
i=449 sample=14201
4515000	 14201	 -7760
i=450 sample=-15477
4525000	-15477	-10229
i=451 sample=-8076
4535000	 -8076	 -9147
i=452 sample=10214
4545000	 10214	 -4161
i=453 sample=-4172
4555000	 -4172	  3314
i=454 sample=31551
4565000	 31551	  9762
i=455 sample=984
4575000	   984	 11402
i=456 sample=-7329
4585000	 -7329	  6851
i=457 sample=6422
4595000	  6422	 -1261
i=458 sample=-6606
4605000	 -6606	 -7634
i=459 sample=-714
4615000	  -714	 -7798
i=460 sample=247
4625000	   247	 -1203
i=461 sample=19014
4635000	 19014	  8633
i=462 sample=-10710
4645000	-10710	 16561
i=463 sample=6203
4655000	  6203	 18953
i=464 sample=13455
4665000	 13455	 15506
i=465 sample=-7827
4675000	 -7827	  8592
i=466 sample=503
4685000	   503	  1304
i=467 sample=-8114
4695000	 -8114	 -4282
i=468 sample=16763
4705000	 16763	 -7565
i=469 sample=1734
4715000	  1734	 -8877
i=470 sample=4086
4725000	  4086	 -8428
i=471 sample=-2169
4735000	 -2169	 -6021
i=472 sample=3735
4745000	  3735	 -1547
i=473 sample=-4986
4755000	 -4986	  4083
i=474 sample=-23199
4765000	-23199	  8797
i=475 sample=1472
4775000	  1472	 10280
i=476 sample=-7908
4785000	 -7908	  7732
i=477 sample=744
4795000	   744	  2584
i=478 sample=12445
4805000	 12445	 -2077
i=479 sample=-1281
4815000	 -1281	 -3576
i=480 sample=-13368
4825000	-13368	 -1397
i=481 sample=-1543
4835000	 -1543	  2643
i=482 sample=20002
4845000	 20002	  5876
i=483 sample=13866
4855000	 13866	  6550
i=484 sample=8666
4865000	  8666	  4669
i=485 sample=14336
4875000	 14336	  1595
i=486 sample=-4306
4885000	 -4306	  -869
i=487 sample=-10802
4895000	-10802	 -1356
i=488 sample=-6689
4905000	 -6689	   482
i=489 sample=-3139
4915000	 -3139	  3784
i=490 sample=-14418
4925000	-14418	  6501
i=491 sample=1567
4935000	  1567	  6295
i=492 sample=-4625
4945000	 -4625	  2229
i=493 sample=5565
4955000	  5565	 -4235
i=494 sample=-8564
4965000	 -8564	 -9574
i=495 sample=3517
4975000	  3517	-10600
i=496 sample=-11947
4985000	-11947	 -6929
i=497 sample=2113
4995000	  2113	 -1433
i=498 sample=-3916
5005000	 -3916	  1895
i=499 sample=-9639
5015000	 -9639	  1249
i=500 sample=-3091
5025000	 -3091	 -1436
i=501 sample=2688
5035000	  2688	 -2174
i=502 sample=-110
5045000	  -110	  1584
i=503 sample=344
5055000	   344	  8498
i=504 sample=-10413
5065000	-10413	 14179
i=505 sample=3562
5075000	  3562	 14446
i=506 sample=1612
5085000	  1612	  8618
i=507 sample=10805
5095000	 10805	  -196
i=508 sample=15714
5105000	 15714	 -7488
i=509 sample=3207
5115000	  3207	-10373
i=510 sample=-17245
5125000	-17245	 -9046
i=511 sample=-7606
5135000	 -7606	 -5739
i=512 sample=-5446
5145000	 -5446	 -2732
i=513 sample=-2221
5155000	 -2221	 -1063
i=514 sample=-2893
5165000	 -2893	  -686
i=515 sample=15543
5175000	 15543	 -1275
i=516 sample=-17987
5185000	-17987	 -2619
i=517 sample=12500
5195000	 12500	 -4390
i=518 sample=5047
5205000	  5047	 -5611
i=519 sample=5704
5215000	  5704	 -5316
i=520 sample=4429
5225000	  4429	 -3413
i=521 sample=1974
5235000	  1974	 -1186
i=522 sample=-546
5245000	  -546	  -458
i=523 sample=-29060
5255000	-29060	 -1824
i=524 sample=-5807
5265000	 -5807	 -3695
i=525 sample=-153
5275000	  -153	 -3291
i=526 sample=7365
5285000	  7365	   707
i=527 sample=-853
5295000	  -853	  6476
i=528 sample=-1411
5305000	 -1411	  9945
i=529 sample=-8417
5315000	 -8417	  7978
i=530 sample=-7358
5325000	 -7358	  1197
i=531 sample=5965
5335000	  5965	 -6179
i=532 sample=-12475
5345000	-12475	 -9587
i=533 sample=8521
5355000	  8521	 -7719
i=534 sample=-7823
5365000	 -7823	 -3076
i=535 sample=-5456
5375000	 -5456	   538
i=536 sample=240
5385000	   240	  1556
i=537 sample=5333
5395000	  5333	  1530
i=538 sample=-1632
5405000	 -1632	  2893
i=539 sample=-6145
5415000	 -6145	  5788
i=540 sample=-1452
5425000	 -1452	  7527
i=541 sample=162
5435000	   162	  5082
i=542 sample=7848
5445000	  7848	 -1589
i=543 sample=6626
5455000	  6626	 -8796
i=544 sample=-9539
5465000	 -9539	-11915
i=545 sample=-21276
5475000	-21276	 -9206
i=546 sample=970
5485000	   970	 -3190
i=547 sample=8550
5495000	  8550	  1586
i=548 sample=-28497
5505000	-28497	  2223
i=549 sample=6250
5515000	  6250	  -701
i=550 sample=7208
5525000	  7208	 -4161
i=551 sample=-1611
5535000	 -1611	 -5625
i=552 sample=6718
5545000	  6718	 -4770
i=553 sample=5961
5555000	  5961	 -2950
i=554 sample=-7239
5565000	 -7239	 -1548
i=555 sample=11260
5575000	 11260	 -1028
i=556 sample=11035
5585000	 11035	 -1082
i=557 sample=4152
5595000	  4152	 -1383
i=558 sample=7247
5605000	  7247	 -1740
i=559 sample=1631
5615000	  1631	 -1863
i=560 sample=-6029
5625000	 -6029	 -1212
i=561 sample=2499
5635000	  2499	   334
i=562 sample=5290
5645000	  5290	  1993
i=563 sample=-3067
5655000	 -3067	  2302
i=564 sample=2265
5665000	  2265	   230
i=565 sample=-6338
5675000	 -6338	 -3744
i=566 sample=5140
5685000	  5140	 -7745
i=567 sample=-6968
5695000	 -6968	 -9546
i=568 sample=5844
5705000	  5844	 -8162
i=569 sample=-2169
5715000	 -2169	 -4375
i=570 sample=7784
5725000	  7784	  -201
i=571 sample=-1472
5735000	 -1472	  2516
i=572 sample=-12404
5745000	-12404	  3174
i=573 sample=7372
5755000	  7372	  2672
i=574 sample=-11188
5765000	-11188	  2620
i=575 sample=2728
5775000	  2728	  3923
i=576 sample=4260
5785000	  4260	  6152
i=577 sample=-5082
5795000	 -5082	  7715
i=578 sample=-8731
5805000	 -8731	  7210
i=579 sample=-6508
5815000	 -6508	  4652
i=580 sample=-10361
5825000	-10361	  1572
i=581 sample=-4636
5835000	 -4636	  -233
i=582 sample=-8710
5845000	 -8710	  -156
i=583 sample=-19262
5855000	-19262	   778
i=584 sample=6058
5865000	  6058	   963
i=585 sample=10769
5875000	 10769	  -149
i=586 sample=-7448
5885000	 -7448	 -1576
i=587 sample=-9596
5895000	 -9596	 -1827
i=588 sample=-9560
5905000	 -9560	  -404
i=589 sample=14421
5915000	 14421	  1624
i=590 sample=6288
5925000	  6288	  2513
i=591 sample=675
5935000	   675	  1313
i=592 sample=-5541
5945000	 -5541	 -1197
i=593 sample=9619
5955000	  9619	 -3314
i=594 sample=-2152
5965000	 -2152	 -3719
i=595 sample=6106
5975000	  6106	 -2435
i=596 sample=1904
5985000	  1904	  -691
i=597 sample=-275
5995000	  -275	   -96
